sample_name,group,patient,subtype,age,sex,survival_months,survival_status,clin_stage,type,tumour,tissue,DNAinput
SCLC0001,SCLC0001,SCLC0001,ASCL1,74,Male,4.566666666666666,1,IV,SCLC,Tumour,cfDNA,25
SCLC0002,SCLC0002,SCLC0002,POU2F3,78,Male,3.1666666666666665,1,IV,SCLC,Tumour,cfDNA,25
SCLC0003,SCLC0003,SCLC0003,ATOH1,60,Female,5.633333333333334,1,IV,SCLC,Tumour,cfDNA,25
SCLC0004,SCLC0004,SCLC0004,ASCL1,71,Male,6.533333333333333,1,IV,SCLC,Tumour,cfDNA,25
SCLC0006,SCLC0006,SCLC0006,ATOH1,80,Male,1.5333333333333334,1,IV,SCLC,Tumour,cfDNA,25
SCLC0005,SCLC0005,SCLC0005,NEUROD1,71,Female,8.5,1,IV (IIIB on 8th edition),SCLC,Tumour,cfDNA,25
SCLC0007,SCLC0007,SCLC0007,ASCL1,60,Female,3.933333333333333,1,IV,SCLC,Tumour,cfDNA,17.5
SCLC0008,SCLC0008,SCLC0008,ASCL1,57,Female,16.766666666666666,1,IV,SCLC,Tumour,cfDNA,NA
SCLC0009,SCLC0009,SCLC0009,NA,77,Male,5.233333333333333,1,IV,SCLC,Tumour,cfDNA,NA
SCLC0010,SCLC0010,SCLC0010,NA,67,Male,14.233333333333333,1,IIIB,SCLC,Tumour,cfDNA,NA
NCC0013,NCC0013,NCC0013,NA,NA,NA,NA,NA,NA,HNV,Normal,cfDNA,NA
NCC0009,NCC0009,NCC0009,NA,NA,NA,NA,NA,NA,HNV,Normal,cfDNA,NA
NCC0014,NCC0014,NCC0014,NA,NA,NA,NA,NA,NA,HNV,Normal,cfDNA,NA
NCC0015,NCC0015,NCC0015,NA,NA,NA,NA,NA,NA,HNV,Normal,cfDNA,NA
NCC0016,NCC0016,NCC0016,NA,NA,NA,NA,NA,NA,HNV,Normal,cfDNA,NA
NCC0010,NCC0010,NCC0010,NA,NA,NA,NA,NA,NA,HNV,Normal,cfDNA,NA
NCC0017,NCC0017,NCC0017,NA,NA,NA,NA,NA,NA,HNV,Normal,cfDNA,NA
NCC0011,NCC0011,NCC0011,NA,NA,NA,NA,NA,NA,HNV,Normal,cfDNA,NA
NCC0012,NCC0012,NCC0012,NA,NA,NA,NA,NA,NA,HNV,Normal,cfDNA,NA
NCC0018,NCC0018,NCC0018,NA,NA,NA,NA,NA,NA,HNV,Normal,cfDNA,NA
NCC0027,NCC0027,NCC0027,NA,NA,NA,NA,NA,NA,HNV,Normal,cfDNA,NA
NCC0019,NCC0019,NCC0019,NA,NA,NA,NA,NA,NA,HNV,Normal,cfDNA,NA
NCC0020,NCC0020,NCC0020,NA,NA,NA,NA,NA,NA,HNV,Normal,cfDNA,NA
NCC0028,NCC0028,NCC0028,NA,NA,NA,NA,NA,NA,HNV,Normal,cfDNA,NA
NCC0029,NCC0029,NCC0029,NA,NA,NA,NA,NA,NA,HNV,Normal,cfDNA,NA
NCC0030,NCC0030,NCC0030,NA,NA,NA,NA,NA,NA,HNV,Normal,cfDNA,NA
NCC0031,NCC0031,NCC0031,NA,NA,NA,NA,NA,NA,HNV,Normal,cfDNA,NA
NCC0021,NCC0021,NCC0021,NA,NA,NA,NA,NA,NA,HNV,Normal,cfDNA,NA
NCC0022,NCC0022,NCC0022,NA,NA,NA,NA,NA,NA,HNV,Normal,cfDNA,NA
NCC0032,NCC0032,NCC0032,NA,NA,NA,NA,NA,NA,HNV,Normal,cfDNA,NA
NCC0023,NCC0023,NCC0023,NA,NA,NA,NA,NA,NA,HNV,Normal,cfDNA,NA
NCC0024,NCC0024,NCC0024,NA,NA,NA,NA,NA,NA,HNV,Normal,cfDNA,NA
NCC0033,NCC0033,NCC0033,NA,NA,NA,NA,NA,NA,HNV,Normal,cfDNA,NA
NCC0034,NCC0034,NCC0034,NA,NA,NA,NA,NA,NA,HNV,Normal,cfDNA,NA
NCC0025,NCC0025,NCC0025,NA,NA,NA,NA,NA,NA,HNV,Normal,cfDNA,NA
NCC0026,NCC0026,NCC0026,NA,NA,NA,NA,NA,NA,HNV,Normal,cfDNA,NA
SCLC0011,SCLC0011,SCLC0011,NA,51.92054794520548,Female,17.066666666666666,0,IV,SCLC,Tumour,cfDNA,21.8
SCLC0012,SCLC0012,SCLC0012,NA,66.78356164383561,Female,9,1,IV,SCLC,Tumour,cfDNA,25
SCLC0013,SCLC0013,SCLC0013,NA,67.06849315068493,Female,10.4,1,IV,SCLC,Tumour,cfDNA,5.5
SCLC0014,SCLC0014,SCLC0014,NA,36.52876712328767,Female,19.266666666666666,1,IV,SCLC,Tumour,cfDNA,13.5
SCLC0015,SCLC0015,SCLC0015,NA,82.11506849315069,Female,10.6,1,IV,SCLC,Tumour,cfDNA,25
SCLC0050,SCLC0050,SCLC0050,NA,74,Female,24.1,1,Limited,SCLC,Tumour,cfDNA,25
SCLC0053,SCLC0053,SCLC0053,NA,70,Male,11.466666666666667,1,IIIA,SCLC,Tumour,cfDNA,25
SCLC0037,SCLC0037,SCLC0037,NA,76,Male,43.9,1,IA,SCLC,Tumour,cfDNA,11.38482461
SCLC0056,SCLC0056,SCLC0056,NA,64,Female,40.733333333333334,0,Extensive,SCLC,Tumour,cfDNA,23.4667426
SCLC0054,SCLC0054,SCLC0054,NA,62,Male,15.833333333333334,1,Extensive,SCLC,Tumour,cfDNA,25
SCLC0042,SCLC0042,SCLC0042,NA,77,Female,40.43333333333333,1,IA,SCLC,Tumour,cfDNA,18.32943756
SCLC0043,SCLC0043,SCLC0043,NA,61,Female,17.466666666666665,1,Limited,SCLC,Tumour,cfDNA,14.8238393
SCLC0052,SCLC0052,SCLC0052,NA,68,Male,47.166666666666664,0,IIIA,SCLC,Tumour,cfDNA,14.34075322
SCLC0051,SCLC0051,SCLC0051,NA,45,Male,44.53333333333333,0,Extensive,SCLC,Tumour,cfDNA,14.73101845
SCLC0039,SCLC0039,SCLC0039,NA,67,Male,9.266666666666667,1,Extensive,SCLC,Tumour,cfDNA,25.40350792
SCLC0040,SCLC0040,SCLC0040,NA,73,Female,12.466666666666667,1,Extensive,SCLC,Tumour,cfDNA,25
SCLC0055,SCLC0055,SCLC0055,NA,65,Male,15.166666666666666,1,Limited,SCLC,Tumour,cfDNA,25
SCLC0038,SCLC0038,SCLC0038,NA,74,Male,25,1,IIIA,SCLC,Tumour,cfDNA,14.75146424
SCLC0035,SCLC0035,SCLC0035,NA,64,Male,1.3333333333333333,1,IIIA,SCLC,Tumour,cfDNA,11.85801076
SCLC0019,SCLC0019,SCLC0019,NA,55,Male,31.533333333333335,1,Extensive,SCLC,Tumour,cfDNA,16.22559216
SCLC0034,SCLC0034,SCLC0034,NA,58,Female,26.4,1,Limited,SCLC,Tumour,cfDNA,13.46566806
SCLC0044,SCLC0044,SCLC0044,NA,66,Female,13.166666666666666,1,Extensive,SCLC,Tumour,cfDNA,34.42470193
SCLC0048,SCLC0048,SCLC0048,NA,50,Female,1.6666666666666667,1,Extensive,SCLC,Tumour,cfDNA,29.28361943
SCLC0041,SCLC0041,SCLC0041,NA,46,Male,7.633333333333334,1,Extensive,SCLC,Tumour,cfDNA,25
SCLC0045,SCLC0045,SCLC0045,NA,65,Male,0.3333333333333333,1,Extensive,SCLC,Tumour,cfDNA,25
SCLC0047,SCLC0047,SCLC0047,NA,65,Female,9.2,1,Extensive,SCLC,Tumour,cfDNA,25
SCLC0046,SCLC0046,SCLC0046,NA,80,Female,16.9,1,Limited,SCLC,Tumour,cfDNA,11.94732625
SCLC0049,SCLC0049,SCLC0049,NA,69,Female,48.46666666666667,0,IA,SCLC,Tumour,cfDNA,14.8716073
SCLC0036,SCLC0036,SCLC0036,NA,72,Male,66.1,0,IB,SCLC,Tumour,cfDNA,6.07288176
SCLC0030,SCLC0030,SCLC0030,NA,64,Male,15,1,Limited,SCLC,Tumour,cfDNA,10.81100647
SCLC0033,SCLC0033,SCLC0033,NA,70,Male,0.7,1,Limited,SCLC,Tumour,cfDNA,9.233520978
SCLC0032,SCLC0032,SCLC0032,NA,50,Female,12.133333333333333,1,Extensive,SCLC,Tumour,cfDNA,25
SCLC0018,SCLC0018,SCLC0018,NA,72,Male,0.9666666666666667,1,Extensive,SCLC,Tumour,cfDNA,25
SCLC0020,SCLC0020,SCLC0020,NA,75,Male,1.4,1,IA,SCLC,Tumour,cfDNA,14.33422043
SCLC0021,SCLC0021,SCLC0021,NA,63,Female,27.1,1,IIIA,SCLC,Tumour,cfDNA,25
SCLC0029,SCLC0029,SCLC0029,NA,68,Male,1.1333333333333333,1,Extensive,SCLC,Tumour,cfDNA,12.84777844
SCLC0023,SCLC0023,SCLC0023,NA,58,Female,16.866666666666667,1,IA,SCLC,Tumour,cfDNA,10.12452572
SCLC0022,SCLC0022,SCLC0022,NA,67,Male,62.86666666666667,1,Limited,SCLC,Tumour,cfDNA,4.616514677
SCLC0024,SCLC0024,SCLC0024,NA,70,Female,112.5,1,IB,SCLC,Tumour,cfDNA,7.334002663
SCLC0017,SCLC0017,SCLC0017,NA,61,Female,2.8666666666666667,1,Extensive,SCLC,Tumour,cfDNA,25
SCLC0016,SCLC0016,SCLC0016,NA,44,Male,11.333333333333334,1,Extensive,SCLC,Tumour,cfDNA,22.57814959
SCLC0031,SCLC0031,SCLC0031,NA,71,Male,22.6,1,Limited,SCLC,Tumour,cfDNA,23.32605526
SCLC0025,SCLC0025,SCLC0025,NA,63,Female,20.633333333333333,1,IA,SCLC,Tumour,cfDNA,25
SCLC0026,SCLC0026,SCLC0026,NA,62,Male,7.7,1,Extensive,SCLC,Tumour,cfDNA,25
SCLC0027,SCLC0027,SCLC0027,NA,71,Female,16.8,1,Extensive,SCLC,Tumour,cfDNA,25
SCLC0028,SCLC0028,SCLC0028,NA,75,Female,92.86666666666666,1,IIB,SCLC,Tumour,cfDNA,20.75553739
SCLC0071,SCLC0071,SCLC0071,ASCL1,56,Male,12.233333333333333,1,IV,SCLC,Tumour,cfDNA,4.353842456
SCLC0078,SCLC0078,SCLC0078,NA,68,Female,25.966666666666665,0,IV,SCLC,Tumour,cfDNA,3.399490927
SCLC0061,SCLC0061,SCLC0061,NA,62,Female,77.46666666666667,0,IIIB,SCLC,Tumour,cfDNA,3.399490927
SCLC0059,SCLC0059,SCLC0059,NA,64,Male,39.233333333333334,1,IIIB,SCLC,Tumour,cfDNA,4.954996188
SCLC0076,SCLC0076,SCLC0076,NA,61,Female,51.86666666666667,0,IV,SCLC,Tumour,cfDNA,5.588891085
SCLC0069,SCLC0069,SCLC0069,NA,68,Male,8.1,1,IV,SCLC,Tumour,cfDNA,4.954996188
SCLC0077,SCLC0077,SCLC0077,NA,69,Female,8.533333333333333,1,IV,SCLC,Tumour,cfDNA,7.27509493
SCLC0075,SCLC0075,SCLC0075,NA,49,Female,10.366666666666667,1,IV,SCLC,Tumour,cfDNA,8.696071861
SCLC0063,SCLC0063,SCLC0063,ASCL1,67,Male,12.733333333333333,1,IV,SCLC,Tumour,cfDNA,9.651346747
SCLC0072,SCLC0072,SCLC0072,NA,71,Female,12.566666666666666,1,IV,SCLC,Tumour,cfDNA,11.84680421
SCLC0062,SCLC0062,SCLC0062,NA,73,Female,23.266666666666666,1,IIIB,SCLC,Tumour,cfDNA,13.46971945
SCLC0070,SCLC0070,SCLC0070,NA,82,Female,7.433333333333334,1,IV,SCLC,Tumour,cfDNA,20.15242114
SCLC0058,SCLC0058,SCLC0058,NA,58,Male,30.833333333333332,1,IV,SCLC,Tumour,cfDNA,21.36003145
SCLC0073,SCLC0073,SCLC0073,NA,78,Male,8.266666666666667,1,IV,SCLC,Tumour,cfDNA,22.45236724
SCLC0060,SCLC0060,SCLC0060,NA,73,Male,3.1666666666666665,1,IV,SCLC,Tumour,cfDNA,25
SCLC0057,SCLC0057,SCLC0057,NA,60,Male,7.333333333333333,1,IV,SCLC,Tumour,cfDNA,25
SCLC0074,SCLC0074,SCLC0074,NA,75,Female,8.966666666666667,1,IV,SCLC,Tumour,cfDNA,25
SCLC0065,SCLC0065,SCLC0065,ASCL1,61,Female,4.533333333333333,1,IV,SCLC,Tumour,cfDNA,25
SCLC0068,SCLC0068,SCLC0068,NA,60,Male,23.866666666666667,1,IIIB (not including parotid),SCLC,Tumour,cfDNA,25
SCLC0066,SCLC0066,SCLC0066,NA,80,Male,1.7666666666666666,1,IV,SCLC,Tumour,cfDNA,25
SCLC0064,SCLC0064,SCLC0064,NA,73,Female,4.9,1,IV,SCLC,Tumour,cfDNA,25
SCLC0067,SCLC0067,SCLC0067,NA,68,Male,6.266666666666667,1,IV,SCLC,Tumour,cfDNA,25
NCC0038,NCC0038,NCC0038,NA,NA,NA,NA,NA,NA,CLHNV,Normal,cfDNA,13.87
NCC0039,NCC0039,NCC0039,NA,NA,NA,NA,NA,NA,CLHNV,Normal,cfDNA,21.01
NCC0041,NCC0041,NCC0041,NA,NA,NA,NA,NA,NA,CLHNV,Normal,cfDNA,17.77
NCC0049,NCC0049,NCC0049,NA,NA,NA,NA,NA,NA,CLHNV,Normal,cfDNA,33.29
NCC0076,NCC0076,NCC0076,NA,NA,NA,NA,NA,NA,CLHNV,Normal,cfDNA,16.57
NCC0054,NCC0054,NCC0054,NA,NA,NA,NA,NA,NA,CLHNV,Normal,cfDNA,24.41
NCC0066,NCC0066,NCC0066,NA,NA,NA,NA,NA,NA,CLHNV,Normal,cfDNA,18.2
NCC0053,NCC0053,NCC0053,NA,NA,NA,NA,NA,NA,CLHNV,Normal,cfDNA,20.65
NCC0043,NCC0043,NCC0043,NA,NA,NA,NA,NA,NA,CLHNV,Normal,cfDNA,11.47
NCC0050,NCC0050,NCC0050,NA,NA,NA,NA,NA,NA,CLHNV,Normal,cfDNA,15.3
NCC0057,NCC0057,NCC0057,NA,NA,NA,NA,NA,NA,CLHNV,Normal,cfDNA,15.1
NCC0065,NCC0065,NCC0065,NA,NA,NA,NA,NA,NA,CLHNV,Normal,cfDNA,11.19
NCC0079,NCC0079,NCC0079,NA,NA,NA,NA,NA,NA,CLHNV,Normal,cfDNA,12.81
NCC0061,NCC0061,NCC0061,NA,NA,NA,NA,NA,NA,CLHNV,Normal,cfDNA,14.65
NCC0068,NCC0068,NCC0068,NA,NA,NA,NA,NA,NA,CLHNV,Normal,cfDNA,7.12
NCC0055,NCC0055,NCC0055,NA,NA,NA,NA,NA,NA,CLHNV,Normal,cfDNA,8.55
NCC0056,NCC0056,NCC0056,NA,NA,NA,NA,NA,NA,CLHNV,Normal,cfDNA,7.41
NCC0035,NCC0035,NCC0035,NA,NA,NA,NA,NA,NA,CLHNV,Normal,cfDNA,6.15
NCC0059,NCC0059,NCC0059,NA,NA,NA,NA,NA,NA,CLHNV,Normal,cfDNA,7.55
NCC0046,NCC0046,NCC0046,NA,NA,NA,NA,NA,NA,CLHNV,Normal,cfDNA,8.41
NCC0060,NCC0060,NCC0060,NA,NA,NA,NA,NA,NA,CLHNV,Normal,cfDNA,8.1
NCC0072,NCC0072,NCC0072,NA,NA,NA,NA,NA,NA,CLHNV,Normal,cfDNA,6.62
NCC0052,NCC0052,NCC0052,NA,NA,NA,NA,NA,NA,CLHNV,Normal,cfDNA,6.84
NCC0067,NCC0067,NCC0067,NA,NA,NA,NA,NA,NA,CLHNV,Normal,cfDNA,6.9
NCC0051,NCC0051,NCC0051,NA,NA,NA,NA,NA,NA,CLHNV,Normal,cfDNA,6.42
NCC0036,NCC0036,NCC0036,NA,NA,NA,NA,NA,NA,CLHNV,Normal,cfDNA,2.97
NCC0037,NCC0037,NCC0037,NA,NA,NA,NA,NA,NA,CLHNV,Normal,cfDNA,1.95
NCC0058,NCC0058,NCC0058,NA,NA,NA,NA,NA,NA,CLHNV,Normal,cfDNA,1.88
NCC0070,NCC0070,NCC0070,NA,NA,NA,NA,NA,NA,CLHNV,Normal,cfDNA,5.17
NCC0040,NCC0040,NCC0040,NA,NA,NA,NA,NA,NA,CLHNV,Normal,cfDNA,5.47
NCC0042,NCC0042,NCC0042,NA,NA,NA,NA,NA,NA,CLHNV,Normal,cfDNA,1.83
NCC0044,NCC0044,NCC0044,NA,NA,NA,NA,NA,NA,CLHNV,Normal,cfDNA,3.82
NCC0045,NCC0045,NCC0045,NA,NA,NA,NA,NA,NA,CLHNV,Normal,cfDNA,2.08
NCC0047,NCC0047,NCC0047,NA,NA,NA,NA,NA,NA,CLHNV,Normal,cfDNA,3.23
NCC0062,NCC0062,NCC0062,NA,NA,NA,NA,NA,NA,CLHNV,Normal,cfDNA,5.84
NCC0063,NCC0063,NCC0063,NA,NA,NA,NA,NA,NA,CLHNV,Normal,cfDNA,3.7
NCC0064,NCC0064,NCC0064,NA,NA,NA,NA,NA,NA,CLHNV,Normal,cfDNA,2.8
NCC0048,NCC0048,NCC0048,NA,NA,NA,NA,NA,NA,CLHNV,Normal,cfDNA,2.56
NCC0069,NCC0069,NCC0069,NA,NA,NA,NA,NA,NA,CLHNV,Normal,cfDNA,2.54
NCC0071,NCC0071,NCC0071,NA,NA,NA,NA,NA,NA,CLHNV,Normal,cfDNA,3.69
NCC0073,NCC0073,NCC0073,NA,NA,NA,NA,NA,NA,CLHNV,Normal,cfDNA,4.18
NCC0074,NCC0074,NCC0074,NA,NA,NA,NA,NA,NA,CLHNV,Normal,cfDNA,5.5
NCC0075,NCC0075,NCC0075,NA,NA,NA,NA,NA,NA,CLHNV,Normal,cfDNA,4.42
NCC0077,NCC0077,NCC0077,NA,NA,NA,NA,NA,NA,CLHNV,Normal,cfDNA,2.8
NCC0078,NCC0078,NCC0078,NA,NA,NA,NA,NA,NA,CLHNV,Normal,cfDNA,4.52
NCC0005,NCC0005,NCC0005,NA,NA,NA,NA,NA,NA,HNV,Normal,cfDNA,25
NCC0001,NCC0001,NCC0001,NA,NA,NA,NA,NA,NA,HNV,Normal,cfDNA,22.5
NCC0002,NCC0002,NCC0002,NA,NA,NA,NA,NA,NA,HNV,Normal,cfDNA,14.4
NCC0003,NCC0003,NCC0003,NA,NA,NA,NA,NA,NA,HNV,Normal,cfDNA,6.9
NCC0006,NCC0006,NCC0006,NA,NA,NA,NA,NA,NA,HNV,Normal,cfDNA,9.8
NCC0004,NCC0004,NCC0004,NA,NA,NA,NA,NA,NA,HNV,Normal,cfDNA,25.1
NCC0007,NCC0007,NCC0007,NA,NA,NA,NA,NA,NA,HNV,Normal,cfDNA,5.3
NCC0008,NCC0008,NCC0008,NA,NA,NA,NA,NA,NA,HNV,Normal,cfDNA,14.5
